; Engine configuration file.
; It's best edited using the editor UI and not directly,
; since the parameters that go here are not all obvious.
;
; Format:
;   [section] ; section goes between []
;   param=value ; assign values to parameters

config_version=4

_global_script_classes=[ {
"base": "Node",
"class": "GraphQLWSConnector",
"language": "GDScript",
"path": "res://kerno/skriptoj/network.gd"
} ]
_global_script_class_icons={
"GraphQLWSConnector": ""
}

[WAT]

Test_Directory="res://tests"

[application]

config/name="Universo"
run/main_scene="res://blokoj/rajtigo/rajtigo.tscn"
config/icon="res://resursoj/icon.png"

[autoload]

Global="*res://kerno/skriptoj/global.gd"
Title="*res://kerno/menuo/menuo.tscn"
Net="*res://kerno/skriptoj/network.gd"

[display]

window/size/width=1600
window/size/height=800
window/stretch/aspect="keep_width"

[gui]

theme/custom_font="res://kerno/menuo/resursoj/fonts/new_dynamicfont.tres"

[input]

ui_left={
"deadzone": 0.5,
"events": [ Object(InputEventKey,"resource_local_to_scene":false,"resource_name":"","device":0,"alt":false,"shift":false,"control":false,"meta":false,"command":false,"pressed":false,"scancode":16777231,"unicode":0,"echo":false,"script":null)
, Object(InputEventJoypadButton,"resource_local_to_scene":false,"resource_name":"","device":0,"button_index":14,"pressure":0.0,"pressed":false,"script":null)
, Object(InputEventKey,"resource_local_to_scene":false,"resource_name":"","device":0,"alt":false,"shift":false,"control":false,"meta":false,"command":false,"pressed":false,"scancode":65,"unicode":0,"echo":false,"script":null)
 ]
}
ui_right={
"deadzone": 0.5,
"events": [ Object(InputEventKey,"resource_local_to_scene":false,"resource_name":"","device":0,"alt":false,"shift":false,"control":false,"meta":false,"command":false,"pressed":false,"scancode":16777233,"unicode":0,"echo":false,"script":null)
, Object(InputEventJoypadButton,"resource_local_to_scene":false,"resource_name":"","device":0,"button_index":15,"pressure":0.0,"pressed":false,"script":null)
, Object(InputEventKey,"resource_local_to_scene":false,"resource_name":"","device":0,"alt":false,"shift":false,"control":false,"meta":false,"command":false,"pressed":false,"scancode":68,"unicode":0,"echo":false,"script":null)
 ]
}
ui_up={
"deadzone": 0.5,
"events": [ Object(InputEventKey,"resource_local_to_scene":false,"resource_name":"","device":0,"alt":false,"shift":false,"control":false,"meta":false,"command":false,"pressed":false,"scancode":16777232,"unicode":0,"echo":false,"script":null)
, Object(InputEventJoypadButton,"resource_local_to_scene":false,"resource_name":"","device":0,"button_index":12,"pressure":0.0,"pressed":false,"script":null)
, Object(InputEventKey,"resource_local_to_scene":false,"resource_name":"","device":0,"alt":false,"shift":false,"control":false,"meta":false,"command":false,"pressed":false,"scancode":87,"unicode":0,"echo":false,"script":null)
 ]
}
ui_down={
"deadzone": 0.5,
"events": [ Object(InputEventKey,"resource_local_to_scene":false,"resource_name":"","device":0,"alt":false,"shift":false,"control":false,"meta":false,"command":false,"pressed":false,"scancode":16777234,"unicode":0,"echo":false,"script":null)
, Object(InputEventJoypadButton,"resource_local_to_scene":false,"resource_name":"","device":0,"button_index":13,"pressure":0.0,"pressed":false,"script":null)
, Object(InputEventKey,"resource_local_to_scene":false,"resource_name":"","device":0,"alt":false,"shift":false,"control":false,"meta":false,"command":false,"pressed":false,"scancode":83,"unicode":0,"echo":false,"script":null)
 ]
}
wheel_down={
"deadzone": 0.5,
"events": [ Object(InputEventMouseButton,"resource_local_to_scene":false,"resource_name":"","device":0,"alt":false,"shift":false,"control":false,"meta":false,"command":false,"button_mask":0,"position":Vector2( 0, 0 ),"global_position":Vector2( 0, 0 ),"factor":1.0,"button_index":5,"pressed":false,"doubleclick":false,"script":null)
 ]
}
wheel_up={
"deadzone": 0.5,
"events": [ Object(InputEventMouseButton,"resource_local_to_scene":false,"resource_name":"","device":0,"alt":false,"shift":false,"control":false,"meta":false,"command":false,"button_mask":0,"position":Vector2( 0, 0 ),"global_position":Vector2( 0, 0 ),"factor":1.0,"button_index":4,"pressed":false,"doubleclick":false,"script":null)
 ]
}
left_click={
"deadzone": 0.5,
"events": [ Object(InputEventMouseButton,"resource_local_to_scene":false,"resource_name":"","device":0,"alt":false,"shift":false,"control":false,"meta":false,"command":false,"button_mask":0,"position":Vector2( 0, 0 ),"global_position":Vector2( 0, 0 ),"factor":1.0,"button_index":1,"pressed":false,"doubleclick":false,"script":null)
 ]
}
right_click={
"deadzone": 0.5,
"events": [ Object(InputEventMouseButton,"resource_local_to_scene":false,"resource_name":"","device":0,"alt":false,"shift":false,"control":false,"meta":false,"command":false,"button_mask":0,"position":Vector2( 0, 0 ),"global_position":Vector2( 0, 0 ),"factor":1.0,"button_index":2,"pressed":false,"doubleclick":false,"script":null)
 ]
}
middle_click={
"deadzone": 0.5,
"events": [ Object(InputEventMouseButton,"resource_local_to_scene":false,"resource_name":"","device":0,"alt":false,"shift":false,"control":false,"meta":false,"command":false,"button_mask":0,"position":Vector2( 0, 0 ),"global_position":Vector2( 0, 0 ),"factor":1.0,"button_index":3,"pressed":false,"doubleclick":false,"script":null)
 ]
}
shift={
"deadzone": 0.5,
"events": [ Object(InputEventKey,"resource_local_to_scene":false,"resource_name":"","device":0,"alt":false,"shift":false,"control":false,"meta":false,"command":false,"pressed":false,"scancode":16777237,"unicode":0,"echo":false,"script":null)
 ]
}
gui_management={
"deadzone": 0.5,
"events": [ Object(InputEventKey,"resource_local_to_scene":false,"resource_name":"","device":0,"alt":false,"shift":false,"control":false,"meta":false,"command":false,"pressed":false,"scancode":71,"unicode":0,"echo":false,"script":null)
 ]
}

[input_devices]

pointing/emulate_touch_from_mouse=true

[locale]

translations=PoolStringArray( "res://blokoj/rajtigo/lingvoj/en_US.po", "res://blokoj/rajtigo/lingvoj/eo_XX.po", "res://blokoj/rajtigo/lingvoj/ru_RU.po", "res://blokoj/rcentro/lingvoj/en_US.po", "res://blokoj/rcentro/lingvoj/eo_XX.po", "res://blokoj/rcentro/lingvoj/ru_RU.po" )

[rendering]

quality/godrays/sample_number=50
quality/godrays/use_pcf5=false
quality/godrays/dither_amount=1.0
