[gd_scene load_steps=2 format=2]

[ext_resource path="res://kerno/menuo/scenoj/bottom_block.tscn" type="PackedScene" id=1]

[node name="bottom_3" instance=ExtResource( 1 )]

[node name="Button" parent="VBox/body_texture/HBoxContainer/VBoxContainer" index="0"]
text = "Объединится с единомышленниками"

[node name="Description" parent="VBox/body_texture/HBoxContainer/VBoxContainer" index="1"]
text = "Информация для разработчиков"
